<svg width="399" height="399" viewBox="0 0 399 399" fill="none" xmlns="http://www.w3.org/2000/svg">
<path d="M121.276 380.606C9.8952 362.452 -21.2069 247.141 47.3812 177.794C109.845 114.613 77.406 65.3762 179.969 58.8924C270.741 53.1668 361.135 127.72 379.708 256.318C398.262 384.556 260.966 403.369 121.276 380.606Z" fill="#FECE2F"/>
<path d="M246.662 89.4358L243.869 124.648L320.776 130.333L323.888 94.4832C326.023 99.9495 330.571 103.7 335.818 103.7C343.14 103.7 349.065 96.3984 349.065 87.4009C349.065 78.4035 343.14 71.1018 335.818 71.1018C331.569 71.1018 327.778 73.5756 325.364 77.406L327.958 47.461L296.257 44.3887C301.604 47.3014 304.896 52.7278 304.198 58.4934C303.24 66.3337 295.2 71.7801 286.262 70.6828C277.325 69.5856 270.861 62.3437 271.819 54.5034C272.497 49.057 276.587 44.7478 282.013 43.0122L250.432 39.9598L247.46 78.1641" fill="#FECE2F"/>
<path d="M259.51 68.1093C255.041 68.1093 250.891 70.7627 248.318 75.0519L251.031 40.0197C251.051 39.7005 250.811 39.4212 250.492 39.3813L218.233 36.0297C223.041 33.8352 226.373 29.6258 226.971 24.758C227.47 20.7879 226.173 16.8578 223.32 13.6658C220.487 10.4937 216.477 8.45883 212.009 7.90023C202.752 6.76308 194.413 12.4688 193.415 20.6084C192.777 25.7555 195.211 30.8028 199.699 34.0746L170.014 30.9824C169.854 30.9624 169.695 31.0223 169.575 31.122C169.435 31.2218 169.375 31.3814 169.355 31.541L163.969 117.725C163.949 118.044 164.188 118.343 164.508 118.363L243.809 125.246C243.829 125.246 243.849 125.246 243.869 125.246C244.008 125.246 244.148 125.186 244.248 125.106C244.387 124.987 244.447 124.847 244.467 124.688L246.981 92.2289C249.235 98.0543 254.043 101.905 259.51 101.905C267.15 101.905 273.355 94.3236 273.355 85.007C273.355 75.6903 267.15 68.1093 259.51 68.1093Z" fill="#1A1A1A"/>
<path d="M320.776 130.932C320.756 130.932 320.756 130.932 320.736 130.932L243.829 125.246C243.669 125.226 243.53 125.166 243.41 125.047C243.31 124.927 243.25 124.767 243.27 124.608L246.063 89.396C246.083 89.0568 246.382 88.8174 246.702 88.8374C247.041 88.8573 247.28 89.1566 247.26 89.4758L244.507 124.089L320.217 129.695L323.27 94.4234C323.29 94.1441 323.509 93.9246 323.788 93.8847C324.068 93.8448 324.327 94.0044 324.427 94.2638C326.542 99.6303 331.01 103.102 335.818 103.102C342.801 103.102 348.467 96.0593 348.467 87.401C348.467 78.7427 342.781 71.7003 335.818 71.7003C331.908 71.7003 328.277 73.8948 325.863 77.7252C325.724 77.9646 325.424 78.0644 325.165 77.9646C324.906 77.8848 324.746 77.6255 324.766 77.3462L327.3 47.9997L298.651 45.2267C303.04 48.4985 305.395 53.5259 304.776 58.5533C303.858 66.0146 296.796 71.421 288.517 71.421C287.739 71.421 286.961 71.3811 286.163 71.2814C281.694 70.7228 277.684 68.6879 274.851 65.5158C271.998 62.3238 270.702 58.3937 271.2 54.4236C271.779 49.6755 274.891 45.6057 279.499 43.3713L250.991 40.6182L248.078 78.204C248.058 78.5432 247.759 78.7826 247.44 78.7626C247.101 78.7427 246.861 78.4434 246.881 78.1242L249.854 39.92C249.874 39.7604 249.934 39.6207 250.073 39.501C250.193 39.4013 250.353 39.3414 250.512 39.3614L282.093 42.4137C282.372 42.4337 282.592 42.6731 282.632 42.9524C282.672 43.2317 282.492 43.491 282.213 43.5908C276.786 45.3264 273.036 49.5359 272.417 54.5832C271.978 58.1942 273.175 61.8051 275.769 64.7178C278.402 67.6704 282.153 69.5657 286.322 70.0844C294.921 71.1417 302.661 65.8949 303.579 58.4136C304.237 53.1069 301.245 47.8002 295.958 44.9075C295.699 44.7678 295.599 44.4686 295.679 44.2092C295.759 43.9299 296.038 43.7703 296.317 43.7903L328.018 46.8426C328.337 46.8825 328.577 47.1618 328.557 47.481L326.143 75.2714C328.716 72.1991 332.148 70.4634 335.818 70.4634C343.459 70.4634 349.664 78.0444 349.664 87.3611C349.664 96.6777 343.459 104.259 335.818 104.259C331.17 104.259 326.821 101.366 324.287 96.7176L321.375 130.353C321.335 130.692 321.075 130.932 320.776 130.932Z" fill="#1A1A1A"/>
<path d="M243.929 124.069L285.046 127.101C290.552 122.633 293.744 117.326 293.744 111.64C293.744 95.5605 268.208 82.5132 236.687 82.5132C205.166 82.5132 179.63 95.5605 179.63 111.64C179.63 114.054 180.208 116.388 181.286 118.623L243.929 124.069Z" fill="white"/>
<path d="M335.818 70.4634C332.148 70.4634 328.716 72.1991 326.143 75.2714L328.557 47.481C328.577 47.1618 328.337 46.8825 328.018 46.8426L296.317 43.7903C296.038 43.7703 295.759 43.9299 295.679 44.2092C295.599 44.4686 295.699 44.7678 295.958 44.9075C301.245 47.8002 304.237 53.1069 303.579 58.4136C302.661 65.8949 294.921 71.1417 286.322 70.0844C282.153 69.5657 278.402 67.6704 275.769 64.7178C273.175 61.8051 271.978 58.1942 272.417 54.5832C273.036 49.5359 276.786 45.3264 282.213 43.5908C282.492 43.491 282.672 43.2317 282.632 42.9524C282.592 42.6731 282.372 42.4337 282.093 42.4137L250.512 39.3614C250.353 39.3414 250.193 39.4013 250.073 39.501C249.934 39.6207 249.874 39.7604 249.854 39.92L246.881 78.1242C246.861 78.4434 247.101 78.7427 247.44 78.7626C247.759 78.7826 248.058 78.5432 248.078 78.204L250.991 40.6182L279.499 43.3713C274.891 45.6057 271.779 49.6755 271.2 54.4236C270.702 58.3937 271.998 62.3238 274.851 65.5158C277.684 68.6879 281.694 70.7228 286.163 71.2814C286.961 71.3811 287.739 71.421 288.517 71.421C296.796 71.421 303.858 66.0146 304.776 58.5533C305.395 53.5259 303.04 48.4985 298.651 45.2267L327.3 47.9997L324.766 77.3462C324.746 77.6255 324.906 77.8848 325.165 77.9646C325.424 78.0644 325.724 77.9646 325.863 77.7252C328.277 73.8948 331.908 71.7003 335.818 71.7003C342.781 71.7003 348.467 78.7427 348.467 87.401C348.467 96.0593 342.801 103.102 335.818 103.102C331.01 103.102 326.542 99.6303 324.427 94.2638C324.327 94.0044 324.068 93.8448 323.788 93.8847C323.509 93.9246 323.29 94.1441 323.27 94.4234L320.217 129.695L285.066 127.082C284.846 127.261 284.607 127.441 284.367 127.64L243.849 124.648L243.27 124.588V124.608C243.25 124.767 243.31 124.927 243.41 125.047C243.53 125.166 243.669 125.226 243.829 125.246L320.736 130.932C320.756 130.932 320.756 130.932 320.776 130.932C321.075 130.932 321.335 130.692 321.375 130.353L324.287 96.7176C326.821 101.366 331.17 104.259 335.818 104.259C343.459 104.259 349.664 96.6777 349.664 87.3611C349.664 78.0444 343.459 70.4634 335.818 70.4634Z" fill="#1A1A1A"/>
<path d="M286.003 97.9745C285.864 97.9745 285.724 97.9346 285.624 97.8349C285.365 97.6154 285.325 97.2563 285.544 96.997C296.118 84.2489 309.225 74.2141 324.487 67.1717C324.786 67.0321 325.145 67.1717 325.285 67.471C325.424 67.7702 325.285 68.1293 324.985 68.269C309.883 75.2315 296.916 85.1467 286.462 97.7551C286.342 97.8947 286.183 97.9745 286.003 97.9745Z" fill="white"/>
<path d="M243.869 125.246C243.849 125.246 243.829 125.246 243.829 125.246C243.49 125.226 243.25 124.927 243.27 124.608L246.043 88.8573C246.063 88.558 246.303 88.3187 246.602 88.2987C246.901 88.2788 247.16 88.4782 247.22 88.7775C248.617 95.7999 253.664 100.708 259.49 100.708C266.472 100.708 272.138 93.6653 272.138 85.0069C272.138 84.6678 272.397 84.4084 272.736 84.4084C273.076 84.4084 273.335 84.6678 273.335 85.0069C273.335 94.3236 267.13 101.905 259.49 101.905C254.023 101.905 249.215 98.0543 246.961 92.2288L244.467 124.688C244.447 125.007 244.188 125.246 243.869 125.246Z" fill="#1A1A1A"/>
<path d="M249.036 58.8526C249.016 58.8526 249.016 58.8526 248.996 58.8526C248.657 58.8326 248.417 58.5334 248.437 58.2142L249.475 43.8901C249.495 43.5509 249.794 43.3115 250.113 43.3315C250.452 43.3514 250.692 43.6507 250.672 43.9699L249.634 58.294C249.594 58.6132 249.335 58.8526 249.036 58.8526Z" fill="#1A1A1A"/>
<path d="M249.694 57.3962C258.911 54.1045 267.43 49.2766 275.13 42.9724L257.953 41.3165C255.559 42.6731 253.106 43.8901 250.592 44.9873L249.694 57.3962Z" fill="white"/>
<path d="M204.647 81.8947C208.558 81.8947 211.729 78.7239 211.729 74.8125C211.729 70.9011 208.558 67.7302 204.647 67.7302C200.736 67.7302 197.565 70.9011 197.565 74.8125C197.565 78.7239 200.736 81.8947 204.647 81.8947Z" fill="#FECE2F"/>
<path d="M249.355 45.526C246.602 46.6631 243.789 47.6407 240.896 48.4586C231.879 50.9923 222.063 51.9499 211.769 51.3115C192.537 50.1145 177.036 43.8103 170.014 40.4387L169.276 52.3688C178.154 56.1593 193.156 61.3264 211.071 62.4635C213.385 62.6032 215.679 62.683 217.954 62.683C227.031 62.683 235.729 61.5259 243.929 59.2316C245.465 58.7927 246.961 58.3339 248.457 57.8152L249.355 45.526Z" fill="white"/>
<path d="M306.931 104.079C309.355 104.079 311.32 102.114 311.32 99.6901C311.32 97.2662 309.355 95.3011 306.931 95.3011C304.507 95.3011 302.542 97.2662 302.542 99.6901C302.542 102.114 304.507 104.079 306.931 104.079Z" fill="white"/>
<path d="M269.026 126.942C268.966 126.942 268.906 126.942 268.846 126.922C268.527 126.822 268.347 126.483 268.447 126.164C268.467 126.084 270.841 118.663 277.006 108.787C279.559 104.698 282.432 100.728 285.524 96.9969C285.744 96.7376 286.103 96.6977 286.362 96.9171C286.622 97.1366 286.661 97.4957 286.442 97.755C283.37 101.446 280.537 105.376 278.003 109.426C271.918 119.181 269.584 126.463 269.564 126.543C269.524 126.782 269.285 126.942 269.026 126.942Z" fill="#1A1A1A"/>
<path d="M269.524 347.29C264.637 341.005 256.836 333.803 246.323 325.923C224.757 309.744 194.233 292.427 160.338 277.125C126.463 261.824 93.2662 250.392 66.8724 244.926C54.0047 242.273 43.4511 241.156 35.4911 241.654C27.0722 242.193 21.8652 244.507 20.0498 248.537C18.2343 252.567 19.9301 257.993 25.1171 264.657C30.0048 270.941 37.8053 278.143 48.3189 286.023C69.8848 302.203 100.428 319.519 134.303 334.821C168.178 350.122 201.375 361.554 227.769 367.02C238.642 369.274 247.859 370.412 255.26 370.412C256.617 370.412 257.914 370.372 259.15 370.292C267.569 369.753 272.776 367.439 274.592 363.409C276.407 359.379 274.711 353.953 269.524 347.29Z" fill="#1A1A1A"/>
<path d="M321.973 150.084C321.973 150.084 324.487 185.874 317.305 211.809C310.123 237.744 298.751 266.472 273.016 292.607C247.28 318.741 217.355 329.754 192.118 333.524C192.118 333.524 191.241 294.562 200.817 277.205C210.393 259.849 220.846 245.265 220.846 245.265C220.846 245.265 230.323 234.173 239.3 230.582C248.278 226.991 265.834 224.398 280.796 211.43C295.759 198.463 296.557 183.899 296.557 183.899C296.557 183.899 303.719 156.627 304.038 146.812C317.005 143.8 321.973 150.084 321.973 150.084Z" fill="white"/>
<path d="M152.498 206.203C152.498 206.203 151.6 192.238 144.019 175.081C140.628 167.381 133.545 159.121 134.643 142.762C135.74 126.403 146.912 108.049 160.079 95.2812C173.246 82.5132 160.079 95.2812 160.079 95.2812C160.079 95.2812 158.822 81.7751 149.246 82.1741C149.246 82.1741 133.346 97.2762 122.274 110.044C111.201 122.812 90.4533 145.954 81.0768 178.672C71.7003 211.39 81.0768 242.911 83.0718 247.3C85.0668 251.689 116.787 253.086 132.947 238.722C149.106 224.358 151.5 211.789 151.5 211.789L152.498 206.203Z" fill="white"/>
<path d="M309.305 254.283C309.205 254.283 309.085 254.263 308.986 254.203C308.706 254.023 308.607 253.664 308.786 253.385C318.641 237.186 323.509 218.812 325.863 206.263C328.417 192.657 328.636 182.762 328.636 182.662C328.636 182.323 328.916 182.064 329.255 182.084C329.594 182.084 329.853 182.363 329.833 182.702C329.833 182.802 329.594 192.777 327.02 206.482C324.646 219.131 319.719 237.644 309.784 254.023C309.704 254.183 309.504 254.283 309.305 254.283Z" fill="#1A1A1A"/>
<path d="M71.5008 199.221C71.1816 199.221 70.9223 198.961 70.9023 198.642C70.2839 182.662 74.4534 168.996 78.0843 160.338C82.0145 150.962 86.1441 145.256 86.184 145.196C86.3835 144.937 86.7626 144.877 87.0219 145.076C87.2813 145.276 87.3411 145.655 87.1416 145.914C87.1017 145.974 83.0319 151.58 79.1616 160.837C75.6105 169.375 71.5008 182.862 72.0993 198.602C72.1193 198.941 71.8599 199.201 71.5208 199.221C71.5208 199.221 71.5208 199.221 71.5008 199.221Z" fill="#1A1A1A"/>
<path d="M275.19 244.906C277.724 244.906 279.779 242.316 279.779 239.121C279.779 235.925 277.724 233.335 275.19 233.335C272.656 233.335 270.602 235.925 270.602 239.121C270.602 242.316 272.656 244.906 275.19 244.906Z" fill="#1A1A1A"/>
<path d="M221.385 209.216C221.644 207.44 221.804 205.465 221.764 203.37C221.624 197.844 219.909 190.762 213.066 185.934C213.066 185.914 213.066 185.914 213.066 185.894C213.166 184.597 213.505 178.054 211.051 177.296C208.757 176.577 202.911 180.667 201.754 181.505L201.734 181.525C195.39 180.647 189.565 182.203 185.375 183.959C182.662 185.096 180.388 186.393 178.652 187.49C178.612 187.43 178.572 187.39 178.513 187.35C174.981 185.036 166.203 183.241 162.972 186.772C162.054 187.769 161.735 188.807 161.994 189.844C162.513 191.899 165.286 193.335 166.702 193.954C163.39 195.929 160.139 198.403 156.987 201.395C154.473 203.769 152.039 206.203 149.685 208.537C135.999 222.143 123.091 234.971 91.6902 244.348C88.4184 245.325 85.366 246.422 82.6129 247.579C69.9846 252.926 64.4185 259.49 60.628 265.215C59.1118 267.529 57.7752 269.884 56.4984 272.178C54.1044 276.427 51.85 280.457 48.3787 284.248C46.7428 286.043 45.0072 287.599 43.0321 289.055C37.3464 293.245 32.698 299.968 29.9649 308.028C27.0721 316.527 26.4736 325.744 28.2492 334.641C30.304 344.955 35.5509 354.452 43.4311 362.092C52.6081 370.99 65.2165 377.474 80.9371 381.364C88.1391 383.14 96.6378 384.037 105.496 384.037C114.653 384.037 124.229 383.1 133.166 381.185C143.361 379.01 152.538 375.718 160.478 371.409C169.395 366.541 176.577 360.457 181.824 353.294C182.682 352.117 183.5 350.9 184.258 349.664C187.191 344.856 189.764 339.808 192.098 334.262C193.934 329.933 195.35 325.923 196.727 322.053C199.899 313.135 202.413 306.093 207.799 300.706C217.934 290.552 228.427 278.023 224.417 257.674C223.5 253.066 222.662 249.195 221.924 245.784C219.849 236.328 218.592 230.502 218.991 222.742C219.53 223.041 220.288 223.4 221.146 223.739C222.442 224.238 223.54 224.477 224.477 224.477C225.215 224.477 225.854 224.318 226.353 224.019C227.35 223.42 227.989 222.223 228.108 220.767C228.228 219.131 227.829 214.722 221.385 209.216ZM210.712 178.453C211.689 178.752 212.068 182.064 211.929 185.176C210.911 184.557 209.814 183.959 208.597 183.44C206.861 182.682 205.126 182.163 203.41 181.804C206.063 180.029 209.575 178.094 210.712 178.453ZM167.979 193.196C166.782 192.777 163.61 191.34 163.171 189.585C163.011 188.946 163.251 188.288 163.869 187.61C166.363 184.877 174.004 186.054 177.595 188.208C176.079 189.246 175.201 190.004 175.121 190.064C175.101 190.084 175.061 190.123 175.041 190.143C172.667 190.921 170.333 191.939 168.019 193.216C167.999 193.216 167.999 193.196 167.979 193.196ZM205.565 193.535C197.864 189.365 190.044 187.71 182.303 188.567C180.907 188.727 179.49 188.966 178.114 189.286C179.869 188.069 182.562 186.413 185.854 185.036C191.32 182.782 199.6 180.847 208.118 184.537C212.547 186.453 215.839 189.286 217.914 192.956C219.57 195.909 220.467 199.42 220.567 203.37C220.667 207.121 220.028 210.572 219.41 212.946C218.672 204.707 213.944 198.064 205.565 193.535ZM226.911 220.667C226.831 221.744 226.393 222.602 225.734 223.001C224.138 223.979 220.627 222.343 219.071 221.445C219.131 220.547 219.23 219.629 219.33 218.672C219.41 217.994 219.47 217.315 219.49 216.657C219.51 216.617 219.55 216.577 219.57 216.517C219.61 216.378 220.527 214.043 221.146 210.592C224.996 214.063 227.131 217.774 226.911 220.667Z" fill="#1A1A1A"/>
<path d="M49.6156 284.647L48.7179 283.849C51.9897 280.158 54.1842 276.268 56.4984 272.158C57.7752 269.864 59.1118 267.509 60.628 265.195C63.9796 260.108 69.3063 253.604 80.7975 248.377L81.2962 249.475C70.1641 254.562 65.1168 260.607 61.6455 265.874C60.1492 268.148 58.8325 270.482 57.5557 272.756C55.2814 276.746 52.9672 280.876 49.6156 284.647Z" fill="#FECE2F"/>
<path d="M127.368 124.182C129.512 122.366 129.951 119.361 128.348 117.469C126.746 115.578 123.709 115.516 121.565 117.333C119.421 119.149 118.983 122.154 120.585 124.046C122.188 125.937 125.224 125.999 127.368 124.182Z" fill="#1A1A1A"/>
<path d="M160.079 95.2812C160.079 95.2812 168.757 88.7974 172.248 83.9097C175.74 79.0219 180.228 69.3462 180.827 68.0494C181.425 66.7527 182.822 62.8624 181.425 62.1642C180.029 61.4659 174.144 68.3487 174.144 68.3487C174.144 68.3487 169.455 74.3337 167.959 72.1392C166.463 69.9447 166.862 65.6554 166.862 65.6554L167.52 61.9846L168.019 54.244C168.019 54.244 163.55 56.0994 162.473 58.1941C161.396 60.2889 157.386 68.7676 157.386 68.7676L154.892 74.7526L148.907 82.1341C148.907 82.1341 154.293 81.7351 156.588 85.5256C158.882 89.3161 160.079 95.2812 160.079 95.2812Z" fill="#FECE2F"/>
<path d="M182.702 352.038L181.725 351.36C182.243 350.601 182.742 349.823 183.221 349.065C185.934 344.616 188.328 340.008 190.503 334.941L191.6 335.419C189.385 340.527 186.991 345.195 184.238 349.684C183.739 350.482 183.241 351.26 182.702 352.038Z" fill="#FECE2F"/>
<path d="M53.6057 351.399L53.5059 350.202C64.4186 349.245 72.3387 345.374 77.7053 338.392C83.8898 330.312 86.7626 318.143 86.4833 301.145C85.7052 286.502 87.8399 275.928 93.1665 267.869C97.6154 261.145 104.199 256.138 115.171 251.15C118.643 249.574 122.333 248.278 126.224 246.921C132.787 244.627 139.59 242.253 145.655 238.283C152.498 233.794 157.445 227.849 160.757 220.068C166.084 207.58 173.545 201.315 178.892 198.263C184.697 194.931 189.206 194.592 189.405 194.572L189.485 195.769L189.445 195.171L189.485 195.769C189.445 195.769 185.016 196.128 179.43 199.34C174.263 202.313 167.041 208.398 161.874 220.547C158.463 228.547 153.396 234.672 146.333 239.28C140.129 243.33 133.266 245.724 126.623 248.038C122.752 249.395 119.102 250.652 115.67 252.228C104.917 257.116 98.4732 261.983 94.164 268.507C88.977 276.347 86.9222 286.701 87.6803 301.065V301.085C87.9596 318.362 85.007 330.791 78.6629 339.09C73.0569 346.392 64.8774 350.402 53.6057 351.399Z" fill="#FECE2F"/>
<path d="M105.835 365.125L105.396 364.008C143.839 349.185 142.064 329.514 139.989 306.771C139.83 305.016 139.67 303.22 139.53 301.425V301.385C139.351 293.245 142.283 283.849 147.79 274.931C152.578 267.19 158.842 260.547 164.548 257.155C166.682 255.879 168.917 254.761 171.071 253.684C179.849 249.275 188.128 245.126 189.385 231.679C190.223 222.662 194.473 215.759 197.904 211.55C201.615 207.001 205.066 204.607 205.206 204.507L205.884 205.485C205.844 205.505 202.393 207.899 198.802 212.328C195.49 216.398 191.38 223.081 190.582 231.779C189.984 238.123 187.809 243.071 183.939 246.901C180.488 250.313 176.178 252.467 171.61 254.761C169.475 255.839 167.261 256.936 165.146 258.193C159.6 261.485 153.495 267.968 148.787 275.569C143.401 284.288 140.528 293.445 140.687 301.345C140.827 303.14 140.987 304.936 141.146 306.671C142.184 318.103 143.161 328.896 138.972 338.791C134.303 349.843 123.77 358.222 105.835 365.125Z" fill="#FECE2F"/>
<path d="M151.879 246.682L151.54 245.525C151.58 245.505 155.111 244.467 159.061 241.495C162.692 238.762 167.46 233.774 169.475 225.615C172.887 211.809 181.365 206.702 181.725 206.483L182.323 207.52L182.024 207.001L182.323 207.52C182.243 207.56 173.904 212.607 170.632 225.894C168.518 234.433 163.55 239.619 159.74 242.472C155.61 245.585 152.019 246.642 151.879 246.682Z" fill="#FECE2F"/>
<path d="M168.398 62.663C168.398 62.663 168.398 62.663 168.378 62.6829C168.378 62.6829 168.378 62.6829 168.398 62.663Z" fill="#1A1A1A"/>
<path d="M182.503 62.603C182.323 62.0245 181.964 61.7452 181.705 61.6255C180.348 61.007 178.513 62.9422 175.38 66.4135C173.106 68.9471 169.994 72.3985 168.677 72.0194C168.198 71.8798 167.979 71.0818 167.859 70.4434C166.782 64.3187 168.179 62.8624 168.378 62.6828L167.78 61.6454C167.66 61.7053 167.021 62.1242 166.622 63.4808C166.124 65.1566 166.144 67.5706 166.682 70.6429C166.922 72.0593 167.48 72.9172 168.338 73.1566C170.373 73.7551 173.226 70.583 176.258 67.2115C177.455 65.8748 178.572 64.618 179.53 63.7601C180.827 62.5831 181.186 62.7028 181.186 62.7028C181.206 62.7227 181.266 62.7626 181.326 62.9422C182.044 65.3761 176.637 76.1491 172.747 82.1939C169.874 86.6627 162.952 92.2687 160.558 94.1639C159.919 89.356 158.243 85.8448 155.57 83.6702C153.555 82.0543 151.46 81.6154 150.144 81.5156L155.331 75.1117C155.351 75.0718 155.391 75.0319 155.411 74.972L161.396 60.9671C162.373 58.6729 164.129 56.7776 166.343 55.6405L168.518 54.5233C168.817 54.3836 168.937 54.0245 168.777 53.7253C168.637 53.426 168.278 53.3063 167.979 53.4659L165.804 54.5831C163.351 55.84 161.396 57.9547 160.318 60.4883L154.373 74.4134L148.468 81.7151C147.55 82.553 133.406 95.6004 118.284 113.555C109.146 124.408 101.446 134.902 95.381 144.757C87.8 157.086 82.7925 168.458 80.4983 178.533C75.3312 201.295 76.1492 218.832 77.7452 229.525C79.4808 241.156 82.4135 247.3 82.5332 247.56C82.6329 247.779 82.8524 247.899 83.0718 247.899C83.1716 247.899 83.2514 247.879 83.3312 247.879C83.6304 247.739 83.7501 247.38 83.6105 247.081C83.5905 247.021 80.7576 241.036 79.022 229.964C84.209 228.388 88.4783 221.046 89.0169 212.009C89.6354 201.734 85.2663 193.076 79.1816 192.398C79.7801 188.109 80.598 183.6 81.6753 178.832C83.9297 168.877 88.8773 157.645 96.3984 145.416C102.403 135.6 110.084 125.166 119.181 114.353C125.386 107.012 131.411 100.468 136.418 95.2811C136.658 95.2612 138.912 95.1215 141.585 96.2786C141.805 96.3784 142.004 96.4781 142.224 96.5779C142.184 96.5579 142.164 96.5579 142.124 96.538C142.124 96.538 149.226 101.246 143.979 113.974C141.027 118.742 138.692 123.55 137.037 128.298C134.503 135.52 133.545 142.603 134.144 149.406C134.144 149.485 134.164 149.545 134.164 149.625C130.573 151.381 111.441 160.957 109.246 165.824C107.291 170.173 110.703 175.201 116.987 173.405C123.271 171.61 129.216 166.822 132.249 169.515C134.104 171.171 135.939 173.385 141.984 171.929C145.994 180.208 150.243 189.904 151.899 206.263C151.939 206.602 152.238 206.842 152.558 206.802C152.897 206.762 153.136 206.463 153.096 206.143C151.281 188.188 146.393 178.153 142.064 169.316C138.812 162.692 136.019 156.967 135.341 149.286C134.742 142.662 135.7 135.74 138.154 128.697C140.129 123.052 143.081 117.306 146.912 111.64C148.129 109.825 149.366 108.149 150.583 106.593C150.742 106.513 150.862 106.373 150.902 106.194C155.59 100.229 159.72 96.4183 160.398 95.7998C160.438 95.7799 160.458 95.7599 160.498 95.74C160.897 95.4407 170.193 88.4183 173.804 82.8124C175.361 80.3785 177.794 76.1291 179.71 72.0793C181.984 67.2713 182.922 64.0594 182.503 62.603ZM142.263 95.2811C142.204 95.2412 142.124 95.2213 142.064 95.1814C140.268 94.4033 138.653 94.1639 137.575 94.0841C143.82 87.6602 148.288 83.5106 149.166 82.7126C149.625 82.6927 150.962 82.7126 152.538 83.3111L142.263 95.2811ZM143.361 95.8397L153.635 83.8498C154.034 84.0692 154.433 84.3286 154.832 84.6478C155.969 85.5655 156.927 86.7824 157.665 88.2787L147.63 99.5704C146.253 97.7948 144.757 96.6178 143.361 95.8397ZM150.503 104.777C149.884 103.122 149.146 101.725 148.348 100.548L158.184 89.4757C158.802 91.0717 159.221 92.947 159.46 95.0617C158.503 95.9195 154.792 99.4308 150.503 104.777Z" fill="#1A1A1A"/>
<path d="M245.006 278.243C244.687 278.243 244.268 278.143 243.889 277.724C243.25 277.066 242.412 275.41 242.373 268.826C242.353 265.036 242.592 260.028 243.091 253.983C243.949 243.689 245.285 233.774 245.285 233.674L246.462 233.834C246.442 233.934 245.126 243.829 244.268 254.083C243.769 260.088 243.53 265.056 243.55 268.806C243.59 274.791 244.308 276.447 244.747 276.906C244.886 277.046 244.986 277.046 245.026 277.046C246.901 276.906 247.998 271.539 249.056 266.352C250.572 258.911 252.308 250.452 257.195 248.358L257.674 249.455C253.345 251.31 251.629 259.769 250.233 266.592C248.936 272.976 247.899 278.023 245.126 278.243C245.086 278.223 245.046 278.243 245.006 278.243Z" fill="#FECE2F"/>
<path d="M103.221 215.46L102.024 215.34C103.281 203.729 113.316 201.056 120.638 199.101C125.505 197.804 128.478 196.887 128.358 194.692C128.318 193.894 127.959 193.216 127.241 192.617C122.732 188.887 107.231 190.842 107.092 190.862L106.932 189.665C107.59 189.585 123.111 187.63 127.999 191.7C128.957 192.498 129.475 193.475 129.535 194.612C129.715 197.904 125.845 198.941 120.917 200.238C113.575 202.213 104.398 204.667 103.221 215.46Z" fill="#FECE2F"/>
<path d="M97.7949 73.3361C96.8573 73.3361 96.0593 73.0568 95.4608 72.4982C95.0219 72.0992 94.7027 71.5606 94.4234 70.8025C93.366 67.8299 94.1241 64.3187 96.3186 62.0644C97.1366 61.2265 97.9545 60.8474 98.7924 60.9272C99.4308 61.007 100.029 61.4659 100.289 62.1043C100.508 62.6429 100.428 63.2015 100.069 63.6005C99.8298 63.8798 99.4109 63.9197 99.1316 63.6803C98.8523 63.4409 98.8124 63.022 99.0518 62.7427C99.0917 62.7028 99.0518 62.623 99.0318 62.603C98.972 62.4235 98.7725 62.2639 98.6328 62.2639C98.1341 62.204 97.6154 62.6429 97.2563 63.002C95.4009 64.9172 94.7625 67.8698 95.6603 70.3835C95.8598 70.9222 96.0792 71.3012 96.3386 71.5606C97.3161 72.4583 99.0518 71.8798 99.75 71.6005C103.82 69.9047 106.653 66.2539 109.446 62.3636C109.964 61.6255 110.483 60.8873 110.962 60.1492C110.503 59.9098 110.084 59.6105 109.765 59.2115C109.146 58.4534 108.807 57.436 108.728 56.0993C108.628 54.3038 109.306 52.4086 110.423 51.2914C111.181 50.5333 112.099 50.1742 113.097 50.234C113.755 50.2739 114.333 50.5333 114.673 50.9522C115.131 51.4909 115.171 52.2091 115.151 52.7477C115.052 55.0819 114.234 57.2165 113.057 59.2913C113.316 59.2913 113.575 59.2714 113.855 59.2115C115.092 58.9522 116.209 58.1941 117.146 57.4759C120.438 54.9622 123.231 51.7303 125.246 48.0994C124.867 47.84 124.528 47.5009 124.289 47.1218C123.89 46.4635 123.81 45.7253 124.069 45.067C124.408 44.2291 125.426 43.5707 126.383 43.9298C126.822 44.0894 127.161 44.4286 127.341 44.8675C127.64 45.6256 127.441 46.5832 127.141 47.3014C128.079 47.2615 129.017 46.7428 129.974 46.1642C134.244 43.6106 137.515 41.1967 139.65 37.8251C139.85 37.5059 140.249 37.4261 140.568 37.6256C140.887 37.8251 140.967 38.2241 140.767 38.5433C138.353 42.3538 134.483 45.0071 130.653 47.3014C129.416 48.0395 128.099 48.7577 126.643 48.5981C126.583 48.5981 126.523 48.5782 126.483 48.5782C124.368 52.4285 121.436 55.8599 117.944 58.5133C116.887 59.3113 115.61 60.1891 114.114 60.4883C113.496 60.608 112.877 60.628 112.279 60.5482C111.72 61.406 111.141 62.2639 110.523 63.1217C107.61 67.1915 104.638 71.002 100.249 72.8174C99.3909 73.1566 98.553 73.3361 97.7949 73.3361ZM112.917 51.5308C112.358 51.5308 111.84 51.7502 111.381 52.2091C110.523 53.047 110.004 54.5831 110.084 55.9996C110.144 57.037 110.383 57.815 110.822 58.3337C111.062 58.613 111.361 58.8325 111.7 58.9921C112.897 56.9771 113.755 54.9023 113.855 52.6879C113.875 52.3886 113.855 51.9896 113.695 51.7901C113.575 51.6505 113.356 51.5707 113.057 51.5507C112.997 51.5308 112.957 51.5308 112.917 51.5308ZM125.845 45.1069C125.645 45.1069 125.406 45.2864 125.306 45.5059C125.166 45.845 125.286 46.1642 125.426 46.3837C125.545 46.5632 125.685 46.7428 125.865 46.8625C126.144 46.2839 126.244 45.6256 126.124 45.3064C126.084 45.2066 126.024 45.1468 125.944 45.1268C125.904 45.1069 125.865 45.1069 125.845 45.1069Z" fill="#1A1A1A"/>
<path d="M373.285 163.849C373.185 163.849 373.085 163.829 372.985 163.769C370.571 162.533 369.275 159.76 369.155 155.51C367 155.929 364.666 156.129 362.891 154.732C362.152 154.154 361.554 153.316 361.075 152.159C359.758 149.006 359.838 145.615 360.078 141.844C360.137 140.867 360.217 139.79 360.397 138.692C357.484 138.992 354.133 138.912 352.417 136.418C351.3 134.802 351.36 132.847 351.499 130.792C351.579 129.595 351.818 126.423 354.152 125.446C354.492 125.306 354.891 125.465 355.03 125.805C355.17 126.144 355.01 126.543 354.671 126.682C353.275 127.281 352.956 129.256 352.836 130.912C352.696 132.707 352.656 134.423 353.514 135.68C354.931 137.715 358.063 137.655 360.696 137.336C360.935 136.498 361.255 135.68 361.714 134.922C362.232 134.084 363.01 133.326 363.888 132.787C365.205 131.989 366.561 132.568 367.2 133.565C367.858 134.543 367.858 136.019 366.621 136.917C366.402 137.076 366.162 137.216 365.923 137.356C364.606 138.074 363.13 138.333 361.753 138.513C361.554 139.57 361.454 140.707 361.374 141.924C361.155 145.535 361.055 148.767 362.272 151.64C362.671 152.578 363.13 153.256 363.689 153.695C365.085 154.792 367.2 154.533 369.115 154.154C369.135 153.176 369.255 152.179 369.813 151.321C370.232 150.682 370.93 150.243 371.669 150.104C372.267 150.004 372.846 150.124 373.304 150.463C373.364 150.503 373.404 150.563 373.444 150.622C374.242 151.78 373.703 153.356 372.746 154.174C372.068 154.752 371.21 155.031 370.432 155.211C370.511 159.081 371.549 161.555 373.544 162.572C373.863 162.732 374.003 163.131 373.843 163.47C373.743 163.71 373.524 163.849 373.285 163.849ZM372.088 151.42C372.028 151.42 371.968 151.42 371.908 151.44C371.529 151.5 371.15 151.76 370.95 152.079C370.631 152.578 370.511 153.196 370.472 153.874C371.01 153.735 371.509 153.515 371.908 153.196C372.387 152.797 372.686 152.039 372.427 151.52C372.327 151.44 372.207 151.42 372.088 151.42ZM365.145 133.765C364.965 133.765 364.766 133.825 364.546 133.944C363.848 134.363 363.25 134.962 362.831 135.64C362.531 136.119 362.312 136.618 362.132 137.156C363.25 136.977 364.327 136.737 365.285 136.219C365.464 136.119 365.644 135.999 365.823 135.879C366.462 135.421 366.362 134.762 366.083 134.323C365.883 134.024 365.564 133.765 365.145 133.765Z" fill="#1A1A1A"/>
<path d="M359.459 228.188C359.399 228.188 359.339 228.188 359.3 228.188C358.382 228.148 357.484 227.649 356.866 226.851C356.227 226.013 355.948 224.956 356.127 223.998C356.487 222.123 358.462 220.707 360.437 220.946C360.796 220.986 361.055 221.325 361.015 221.684C360.975 222.043 360.636 222.323 360.277 222.263C359 222.123 357.664 223.041 357.424 224.258C357.305 224.836 357.484 225.515 357.903 226.053C358.282 226.552 358.821 226.851 359.359 226.871C360.237 226.911 361.175 226.353 361.753 225.415C362.352 224.477 362.551 223.32 362.691 222.223C363.389 216.797 362.551 211.211 360.337 206.223C358.94 206.502 357.464 206.163 356.387 205.844C353.394 204.966 352.537 203.231 352.736 201.914C352.856 201.156 353.315 200.497 354.053 200.078C354.95 199.56 356.108 199.46 357.065 199.839C358.641 200.458 359.599 201.894 360.337 203.211C360.576 203.649 360.816 204.108 361.055 204.567C361.075 204.547 361.095 204.547 361.115 204.527C362.192 203.869 362.711 202.532 363.13 201.176C364.626 196.348 365.205 191.34 364.886 186.293C364.866 185.934 365.145 185.615 365.504 185.595C365.863 185.575 366.182 185.854 366.202 186.213C366.541 191.42 365.923 196.587 364.387 201.555C363.928 203.071 363.25 204.747 361.793 205.645C361.733 205.684 361.654 205.724 361.574 205.764C363.848 210.951 364.706 216.757 363.988 222.383C363.828 223.639 363.569 224.956 362.851 226.113C362.093 227.39 360.756 228.188 359.459 228.188ZM355.848 200.896C355.449 200.896 355.05 200.996 354.731 201.176C354.472 201.335 354.133 201.615 354.073 202.073C353.893 203.33 355.689 204.208 356.786 204.547C357.983 204.906 358.98 205.026 359.778 204.946C359.599 204.567 359.399 204.188 359.18 203.829C358.561 202.712 357.763 201.515 356.586 201.056C356.367 200.936 356.108 200.896 355.848 200.896Z" fill="#1A1A1A"/>
<path d="M52.0097 64.0794L55.2017 72.0594L66.9722 66.0744L63.7802 60.6879L52.0097 64.0794Z" fill="#1A1A1A"/>
<path d="M255.24 184.458L260.028 189.246L267.21 182.463L263.021 177.675L255.24 184.458Z" fill="white"/>
<path d="M260.028 189.844C259.869 189.844 259.729 189.784 259.609 189.665L254.821 184.877C254.702 184.757 254.642 184.597 254.642 184.438C254.642 184.278 254.722 184.119 254.841 183.999L262.622 177.216C262.861 176.996 263.24 177.016 263.46 177.276L267.649 182.064C267.869 182.303 267.849 182.662 267.609 182.902L260.427 189.685C260.328 189.804 260.188 189.844 260.028 189.844ZM256.118 184.498L260.048 188.428L266.392 182.443L262.981 178.533L256.118 184.498Z" fill="#1A1A1A"/>
<path d="M65.6555 117.984L69.426 118.782L71.042 113.276L66.0545 111.521L65.6555 117.984Z" fill="white"/>
<path d="M69.426 119.381C69.3861 119.381 69.3462 119.381 69.3063 119.361L65.5358 118.563C65.2365 118.503 65.037 118.244 65.057 117.944L65.456 111.481C65.4759 111.301 65.5757 111.121 65.7153 111.022C65.8749 110.922 66.0744 110.902 66.254 110.962L71.2415 112.717C71.5407 112.817 71.7003 113.136 71.6205 113.456L70.0046 118.982C69.9248 119.221 69.6854 119.381 69.426 119.381ZM66.2939 117.505L69.0071 118.084L70.3038 113.635L66.6131 112.338L66.2939 117.505Z" fill="#1A1A1A"/>
<path d="M107.81 97.4757L111.8 100.867L108.608 108.249L104.817 106.054L107.81 97.4757Z" fill="#1A1A1A"/>
<path d="M287.16 172.488L279.579 156.129L275.948 158.044L270.801 146.353L266.213 149.146L274.392 165.505L278.023 163.231L283.968 174.283L287.16 172.488Z" fill="#1A1A1A"/>
<path d="M349.105 45.2665L352.317 45.6256L348.167 57.1168L342.422 55.3811L349.105 45.2665Z" fill="#1A1A1A"/>
<path d="M300.846 21.8452L306.213 24.0796L305.734 30.1444L297.594 29.1868L300.846 21.8452Z" fill="#1A1A1A"/>
<path d="M183.68 140.288L188.667 137.296L196.049 147.67L190.862 148.867L183.68 140.288Z" fill="#1A1A1A"/>
<path d="M375.339 115.091L371.589 108.229L370.292 109.306L365.564 103.441L361.773 108.229L368.556 115.411L369.813 114.094L372.127 117.605L375.339 115.091Z" fill="#1A1A1A"/>
<path d="M321.973 150.084C321.973 150.084 324.786 133.904 325.684 127.919C326.581 121.934 327.679 112.059 325.783 112.957C323.888 113.855 317.903 129.316 317.903 129.316L302.542 129.216L304.437 146.573C304.437 146.573 311.998 144.857 316.108 146.573C319.38 147.849 321.973 150.084 321.973 150.084Z" fill="#FECE2F"/>
<path d="M326.941 112.358C326.701 112.019 326.322 111.86 325.943 111.919C325.085 112.059 323.769 113.236 320.517 121.037C319.08 124.468 317.824 127.899 317.385 129.096L302.542 128.578C302.362 128.578 302.203 128.657 302.083 128.777C301.963 128.917 301.903 129.076 301.923 129.256V129.276L303.4 146.712C303.4 146.732 303.4 146.752 303.4 146.772C303.4 146.932 302.701 162.014 294.741 189.425C291.589 200.318 284.168 209.395 272.697 216.457C263.021 222.403 252.407 225.774 245.365 228.008C244.108 228.407 242.911 228.787 241.874 229.126C229.285 233.315 220.428 244.766 220.348 244.886C220.148 245.146 220.208 245.525 220.467 245.724C220.567 245.804 220.707 245.844 220.827 245.844C221.006 245.844 221.186 245.764 221.285 245.604C221.385 245.485 230.004 234.333 242.253 230.243C243.27 229.904 244.467 229.525 245.724 229.126C252.348 227.011 262.143 223.919 271.4 218.592C271.44 220.128 271.759 223.999 273.993 224.158C276.786 224.358 280.577 222.961 281.175 225.754C281.774 228.547 282.592 242.951 289.155 241.116C294.143 239.719 290.153 227.949 288.756 217.375C287.839 210.492 288.198 206.243 288.557 204.108C291.928 199.739 294.382 194.951 295.898 189.744C297.714 183.48 299.15 177.874 300.287 172.927C301.425 169.914 304.856 163.311 313.195 164.009C313.195 164.009 313.195 164.009 313.175 163.989C315.868 164.747 318.941 166.243 322.053 169.016C321.993 172.707 321.794 176.837 321.434 181.325C320.557 192.198 318.781 202.971 316.168 213.325C312.896 226.273 308.327 238.642 302.542 250.053C299.051 256.956 295.26 263.46 291.17 269.564C284.507 267.15 273.155 272.677 264.078 283.23C256.537 292.028 252.667 301.843 253.545 308.507C244.926 314.532 235.49 319.599 225.435 323.609C215.101 327.739 203.849 330.871 191.959 332.906C191.64 332.965 191.42 333.285 191.48 333.604C191.54 333.903 191.799 334.103 192.079 334.103C192.118 334.103 192.138 334.103 192.158 334.063C204.128 332.008 215.48 328.836 225.874 324.686C236.687 320.357 246.821 314.811 255.998 308.188C265.515 301.325 274.273 293.105 282.073 283.749C290.113 274.093 297.375 262.921 303.619 250.572C309.445 239.081 314.053 226.632 317.345 213.585C319.978 203.151 321.754 192.318 322.651 181.385C323.011 176.917 323.19 172.787 323.27 169.076C323.33 168.917 323.35 168.757 323.27 168.597C323.429 158.223 322.691 151.4 322.552 150.184C322.651 149.545 324.168 141.066 325.464 132.408C327.898 116.149 327.539 113.156 326.941 112.358ZM304.577 147.251C305.355 147.031 307.29 146.573 309.704 146.473L307.45 162.094C305.175 162.173 303.42 162.632 302.382 162.971C304.038 154.134 304.477 148.787 304.577 147.251ZM308.647 162.094L310.901 146.473C312.756 146.513 314.791 146.792 316.806 147.55L315.908 163.69C313.175 162.553 310.661 162.154 308.647 162.094ZM317.085 164.228L317.983 148.049C319.16 148.607 320.317 149.366 321.375 150.363C321.514 151.58 322.193 157.884 322.093 167.48C320.397 166.064 318.701 165.006 317.085 164.228ZM321.574 148.967C318.681 146.553 314.911 145.296 310.562 145.276C310.542 145.276 310.502 145.256 310.482 145.256C310.382 145.236 310.302 145.256 310.203 145.276C307.649 145.296 305.574 145.755 304.517 146.034L303.42 133.047L317.704 130.353C317.963 130.393 318.242 130.234 318.342 129.954C318.362 129.914 319.819 125.765 321.554 121.595C324.427 114.673 325.664 113.376 326.023 113.136C326.262 113.735 326.602 116.787 324.287 132.288C323.23 139.411 322.033 146.393 321.574 148.967Z" fill="#1A1A1A"/>
</svg>
